Clase 4: Visualización de datos en R
…
    entidad     = `Entidad federativa`,
    tipo        = `Tipo de asentamiento humano`,
    lat         = Latitud,
    lon         = Longitud,
    scian   = `Código de la clase de actividad SCIAN`,
    fecha_inc  = `Fecha de incorporación al DENUE`
  ) %>%
  mutate(
    año_inc = str_sub(fecha_inc, 1, 4) %>% as.integer(),
    estrato = fct_relevel(estrato,
      "0 a 5 personas", "6 a 10 personas", "11 a 30 personas",
      "31 a 50 personas", "51 a 100 personas", "101 a 250 personas"))
aloj_temp

## # A tibble: 28,298 × 11
##        id actividad estrato municipio entidad tipo    lat   lon  scian fecha_inc
##     <dbl> <chr>     <fct>   <chr>     <chr>   <chr> <dbl> <dbl>  <dbl> <chr>    
##  1 6.28e6 Hoteles … 11 a 3… Aguascal… AGUASC… CIUD…  21.8 -102. 721111 2010-07  
##  2 6.25e6 Hoteles … 51 a 1… Aguascal… AGUASC… COLO…  21.9 -102. 721111 2010-07  
##  3 9.81e6 Hoteles … 0 a 5 … Aguascal… AGUASC… COLO…  21.9 -102. 721112 2024-11  
##  4 9.60e6 Departam… 0 a 5 … Aguascal… AGUASC… FRAC…  21.9 -102. 721312 2024-11  
##  5 9.77e6 Departam… 0 a 5 … Aguascal… AGUASC… COLO…  21.9 -102. 721312 2024-11  
##  6 6.28e6 Hoteles … 11 a 3… Aguascal… AGUASC… COLO…  21.9 -102. 721112 2010-07  
##  7 1.08e7 Hoteles … 0 a 5 … Aguascal… AGUASC… COLO…  21.9 -102. 721112 2024-11  
##  8 8.54e6 Moteles   11 a 3… Aguascal… AGUASC… UNID…  21.9 -102. 721113 2019-11  
##  9 1.12e7 Moteles   31 a 5… Aguascal… AGUASC… FRAC…  21.9 -102. 721113 2024-11  
## 10 9.98e6 Cabañas,… 0 a 5 … Calvillo  AGUASC… COLO…  21.8 -103. 721190 2024-11  
## # ℹ 28,288 more rows
## # ℹ 1 more variable: año_inc <int>
…
Distribución de establecimientos por entidad federativa

municipios_top5 <- aloj_temp %>%
  filter(entidad %in% top5_estados$entidad) %>%
  count(entidad, municipio, sort = TRUE)

municipios_top5

## # A tibble: 730 × 3
##    entidad                         municipio                      n
##    <chr>                           <chr>                      <int>
##  1 OAXACA                          Oaxaca de Juárez             438
##  2 JALISCO                         Guadalajara                  359
##  3 PUEBLA                          Puebla                       342
##  4 CHIAPAS                         San Cristóbal de las Casas   340
##  5 VERACRUZ DE IGNACIO DE LA LLAVE Tecolutla                    248
##  6 JALISCO                         Puerto Vallarta              210
##  7 CHIAPAS                         Tuxtla Gutiérrez             201
##  8 VERACRUZ DE IGNACIO DE LA LLAVE Veracruz                     200
##  9 OAXACA                          Santa María Huatulco         194
## 10 CHIAPAS                         Tapachula                    174
## # ℹ 720 more rows

Concentración de alojamientos temporales por entidad federativa
(porcentaje)

municipios_top5 <- municipios_top5 %>%
  group_by(entidad) %>%
  mutate(
    porcentaje = n / sum(n) * 100
  ) %>%
  ungroup()
municipios_top5

## # A tibble: 730 × 4
##    entidad                         municipio                      n porcentaje
##    <chr>                           <chr>                      <int>      <dbl>
##  1 OAXACA                          Oaxaca de Juárez             438      20.7 
##  2 JALISCO                         Guadalajara                  359      18.8 
##  3 PUEBLA                          Puebla                       342      21.1 
##  4 CHIAPAS                         San Cristóbal de las Casas   340      19.3 
##  5 VERACRUZ DE IGNACIO DE LA LLAVE Tecolutla                    248      11.8 
##  6 JALISCO                         Puerto Vallarta              210      11.0 
##  7 CHIAPAS                         Tuxtla Gutiérrez             201      11.4 
##  8 VERACRUZ DE IGNACIO DE LA LLAVE Veracruz                     200       9.51
##  9 OAXACA                          Santa María Huatulco         194       9.18
## 10 CHIAPAS                         Tapachula                    174       9.90
## # ℹ 720 more rows
…
